…
Goodness of fit.

``` r
st_join(dasf_iow, rnet_f["flow"], op = sf::st_nearest_points)
#> although coordinates are longitude/latitude, st_intersects assumes that they are planar
#> Simple feature collection with 58 features and 5 fields
#> geometry type:  POINT
#> dimension:      XY
#> bbox:           xmin: -1.529917 ymin: 50.58385 xmax: -1.115219 ymax: 50.75773
#> epsg (SRID):    4326
#> proj4string:    +proj=longlat +datum=WGS84 +no_defs
#> # A tibble: 58 x 6
#> # Groups:   count_point_id, longitude [58]
#>    count_point_id longitude latitude    pcu             geometry  flow
#>             <dbl>     <dbl>    <dbl>  <dbl>          <POINT [°]> <dbl>
#>  1           7566     -1.28     50.8  279.  (-1.277563 50.75236)    NA
#>  2           7578     -1.30     50.6   87.6 (-1.295116 50.58385)    NA
#>  3          17546     -1.43     50.7  247.  (-1.434967 50.70071)    NA
#>  4          17547     -1.22     50.7  487.  (-1.223317 50.65525)    NA
#>  5          17850     -1.29     50.7 1190.    (-1.293332 50.703)    NA
#>  6          27619     -1.22     50.6  280.  (-1.223693 50.63241)    NA
#>  7          27633     -1.17     50.6  327.  (-1.174163 50.63477)    NA
#>  8          28156     -1.26     50.7  525.  (-1.264597 50.72945)    NA
#>  9          37656     -1.30     50.8  182.  (-1.298258 50.75249)    NA
#> 10          38210     -1.16     50.7  458.  (-1.162551 50.73037)    NA
#> # … with 48 more rows
…
